%YAML 1.1
%TAG !u! tag:unity3d.com,2011:
--- !u!1 &989698534424410484
GameObject:
  m_ObjectHideFlags: 0
  m_CorrespondingSourceObject: {fileID: 0}
  m_PrefabInstance: {fileID: 0}
  m_PrefabAsset: {fileID: 0}
  serializedVersion: 6
  m_Component:
  - component: {fileID: 4817618503104157676}
  - component: {fileID: 1829187574838498025}
  - component: {fileID: 8610652479032485882}
  m_Layer: 31
  m_Name: Layer1
  m_TagString: Untagged
  m_Icon: {fileID: 0}
  m_NavMeshLayer: 0
  m_StaticEditorFlags: 0
  m_IsActive: 1
--- !u!4 &4817618503104157676
Transform:
  m_ObjectHideFlags: 0
  m_CorrespondingSourceObject: {fileID: 0}
  m_PrefabInstance: {fileID: 0}
  m_PrefabAsset: {fileID: 0}
  m_GameObject: {fileID: 989698534424410484}
  m_LocalRotation: {x: -0, y: -0, z: -0, w: 1}
  m_LocalPosition: {x: 0, y: 0, z: 0}
  m_LocalScale: {x: 1, y: 1, z: 1}
  m_Children: []
  m_Father: {fileID: 5406093540640931929}
  m_RootOrder: 0
  m_LocalEulerAnglesHint: {x: 0, y: 0, z: 0}
--- !u!1839735485 &1829187574838498025
Tilemap:
  m_ObjectHideFlags: 0
  m_CorrespondingSourceObject: {fileID: 0}
  m_PrefabInstance: {fileID: 0}
  m_PrefabAsset: {fileID: 0}
  m_GameObject: {fileID: 989698534424410484}
  m_Enabled: 1
  m_Tiles:
  - first: {x: 10, y: -7, z: 0}
    second:
      m_TileIndex: 106
      m_TileSpriteIndex: 105
      m_TileMatrixIndex: 0
      m_TileColorIndex: 0
      m_ObjectToInstantiate: {fileID: 0}
      m_TileFlags: 1
      m_ColliderType: 1
  - first: {x: 10, y: -6, z: 0}
    second:
      m_TileIndex: 119
      m_TileSpriteIndex: 119
      m_TileMatrixIndex: 0
      m_TileColorIndex: 0
      m_ObjectToInstantiate: {fileID: 0}
      m_TileFlags: 1
      m_ColliderType: 1
  - first: {x: 10, y: -5, z: 0}
    second:
      m_TileIndex: 130
      m_TileSpriteIndex: 130
      m_TileMatrixIndex: 0
      m_TileColorIndex: 0
      m_ObjectToInstantiate: {fileID: 0}
      m_TileFlags: 1
      m_ColliderType: 1
  - first: {x: 11, y: -5, z: 0}
    second:
      m_TileIndex: 131
      m_TileSpriteIndex: 131
      m_TileMatrixIndex: 0
      m_TileColorIndex: 0
      m_ObjectToInstantiate: {fileID: 0}
      m_TileFlags: 1
      m_ColliderType: 1
  - first: {x: 20, y: -5, z: 0}
    second:
      m_TileIndex: 132
      m_TileSpriteIndex: 132
      m_TileMatrixIndex: 0
      m_TileColorIndex: 0
      m_ObjectToInstantiate: {fileID: 0}
      m_TileFlags: 1
      m_ColliderType: 1
  - first: {x: 21, y: -5, z: 0}
    second:
      m_TileIndex: 133
      m_TileSpriteIndex: 133
      m_TileMatrixIndex: 0
      m_TileColorIndex: 0
      m_ObjectToInstantiate: {fileID: 0}
      m_TileFlags: 1
      m_ColliderType: 1
  - first: {x: 8, y: -4, z: 0}
    second:
      m_TileIndex: 116
      m_TileSpriteIndex: 116
      m_TileMatrixIndex: 0
      m_TileColorIndex: 0
      m_ObjectToInstantiate: {fileID: 0}
      m_TileFlags: 1
      m_ColliderType: 1
  - first: {x: 9, y: -4, z: 0}
    second:
      m_TileIndex: 117
      m_TileSpriteIndex: 117
      m_TileMatrixIndex: 0
      m_TileColorIndex: 0
      m_ObjectToInstantiate: {fileID: 0}
      m_TileFlags: 1
      m_ColliderType: 1
  - first: {x: 10, y: -4, z: 0}
    second:
      m_TileIndex: 118
      m_TileSpriteIndex: 118
      m_TileMatrixIndex: 0
      m_TileColorIndex: 0
      m_ObjectToInstantiate: {fileID: 0}
      m_TileFlags: 1
      m_ColliderType: 1
  - first: {x: 12, y: -4, z: 0}
    second:
      m_TileIndex: 120
      m_TileSpriteIndex: 120
      m_TileMatrixIndex: 0
      m_TileColorIndex: 0
      m_ObjectToInstantiate: {fileID: 0}
      m_TileFlags: 1
      m_ColliderType: 1
  - first: {x: 13, y: -4, z: 0}
    second:
      m_TileIndex: 121
      m_TileSpriteIndex: 121
      m_TileMatrixIndex: 0
      m_TileColorIndex: 0
      m_ObjectToInstantiate: {fileID: 0}
      m_TileFlags: 1
      m_ColliderType: 1
  - first: {x: 14, y: -4, z: 0}
    second:
      m_TileIndex: 122
      m_TileSpriteIndex: 122
      m_TileMatrixIndex: 0
      m_TileColorIndex: 0
      m_ObjectToInstantiate: {fileID: 0}
      m_TileFlags: 1
      m_ColliderType: 1
  - first: {x: 15, y: -4, z: 0}
    second:
      m_TileIndex: 123
      m_TileSpriteIndex: 123
      m_TileMatrixIndex: 0
      m_TileColorIndex: 0
      m_ObjectToInstantiate: {fileID: 0}
      m_TileFlags: 1
      m_ColliderType: 1
  - first: {x: 16, y: -4, z: 0}
    second:
      m_TileIndex: 124
      m_TileSpriteIndex: 124
      m_TileMatrixIndex: 0
      m_TileColorIndex: 0
      m_ObjectToInstantiate: {fileID: 0}
      m_TileFlags: 1
      m_ColliderType: 1
  - first: {x: 17, y: -4, z: 0}
    second:
      m_TileIndex: 125
      m_TileSpriteIndex: 125
      m_TileMatrixIndex: 0
      m_TileColorIndex: 0
      m_ObjectToInstantiate: {fileID: 0}
      m_TileFlags: 1
      m_ColliderType: 1
  - first: {x: 18, y: -4, z: 0}
    second:
      m_TileIndex: 126
      m_TileSpriteIndex: 126
      m_TileMatrixIndex: 0
      m_TileColorIndex: 0
      m_ObjectToInstantiate: {fileID: 0}
      m_TileFlags: 1
      m_ColliderType: 1
  - first: {x: 19, y: -4, z: 0}
    second:
      m_TileIndex: 127
      m_TileSpriteIndex: 127
      m_TileMatrixIndex: 0
      m_TileColorIndex: 0
      m_ObjectToInstantiate: {fileID: 0}
      m_TileFlags: 1
      m_ColliderType: 1
  - first: {x: 20, y: -4, z: 0}
    second:
      m_TileIndex: 128
      m_TileSpriteIndex: 128
      m_TileMatrixIndex: 0
      m_TileColorIndex: 0
      m_ObjectToInstantiate: {fileID: 0}
      m_TileFlags: 1
      m_ColliderType: 1
  - first: {x: 21, y: -4, z: 0}
    second:
      m_TileIndex: 129
      m_TileSpriteIndex: 129
      m_TileMatrixIndex: 0
      m_TileColorIndex: 0
      m_ObjectToInstantiate: {fileID: 0}
      m_TileFlags: 1
      m_ColliderType: 1
  - first: {x: 7, y: -3, z: 0}
    second:
      m_TileIndex: 102
      m_TileSpriteIndex: 102
      m_TileMatrixIndex: 0
      m_TileColorIndex: 0
      m_ObjectToInstantiate: {fileID: 0}
      m_TileFlags: 1
      m_ColliderType: 1
  - first: {x: 8, y: -3, z: 0}
    second:
      m_TileIndex: 103
      m_TileSpriteIndex: 103
      m_TileMatrixIndex: 0
      m_TileColorIndex: 0
      m_ObjectToInstantiate: {fileID: 0}
      m_TileFlags: 1
      m_ColliderType: 1
  - first: {x: 9, y: -3, z: 0}
    second:
      m_TileIndex: 104
      m_TileSpriteIndex: 104
      m_TileMatrixIndex: 0
      m_TileColorIndex: 0
      m_ObjectToInstantiate: {fileID: 0}
      m_TileFlags: 1
      m_ColliderType: 1
  - first: {x: 11, y: -3, z: 0}
    second:
      m_TileIndex: 105
      m_TileSpriteIndex: 106
      m_TileMatrixIndex: 0
      m_TileColorIndex: 0
      m_ObjectToInstantiate: {fileID: 0}
      m_TileFlags: 1
      m_ColliderType: 1
  - first: {x: 13, y: -3, z: 0}
    second:
      m_TileIndex: 107
      m_TileSpriteIndex: 107
      m_TileMatrixIndex: 0
      m_TileColorIndex: 0
      m_ObjectToInstantiate: {fileID: 0}
      m_TileFlags: 1
      m_ColliderType: 1
  - first: {x: 14, y: -3, z: 0}
    second:
      m_TileIndex: 108
      m_TileSpriteIndex: 108
      m_TileMatrixIndex: 0
      m_TileColorIndex: 0
      m_ObjectToInstantiate: {fileID: 0}
      m_TileFlags: 1
      m_ColliderType: 1
  - first: {x: 15, y: -3, z: 0}
    second:
      m_TileIndex: 109
      m_TileSpriteIndex: 109
      m_TileMatrixIndex: 0
      m_TileColorIndex: 0
      m_ObjectToInstantiate: {fileID: 0}
      m_TileFlags: 1
      m_ColliderType: 1
  - first: {x: 16, y: -3, z: 0}
    second:
      m_TileIndex: 110
      m_TileSpriteIndex: 110
      m_TileMatrixIndex: 0
      m_TileColorIndex: 0
      m_ObjectToInstantiate: {fileID: 0}
      m_TileFlags: 1
      m_ColliderType: 1
  - first: {x: 17, y: -3, z: 0}
    second:
      m_TileIndex: 111
      m_TileSpriteIndex: 111
      m_TileMatrixIndex: 0
      m_TileColorIndex: 0
      m_ObjectToInstantiate: {fileID: 0}
      m_TileFlags: 1
      m_ColliderType: 1
  - first: {x: 18, y: -3, z: 0}
    second:
      m_TileIndex: 112
      m_TileSpriteIndex: 112
      m_TileMatrixIndex: 0
      m_TileColorIndex: 0
      m_ObjectToInstantiate: {fileID: 0}
      m_TileFlags: 1
      m_ColliderType: 1
  - first: {x: 20, y: -3, z: 0}
    second:
      m_TileIndex: 114
      m_TileSpriteIndex: 114
      m_TileMatrixIndex: 0
      m_TileColorIndex: 0
      m_ObjectToInstantiate: {fileID: 0}
      m_TileFlags: 1
      m_ColliderType: 1
  - first: {x: 21, y: -3, z: 0}
    second:
      m_TileIndex: 115
      m_TileSpriteIndex: 115
      m_TileMatrixIndex: 0
      m_TileColorIndex: 0
      m_ObjectToInstantiate: {fileID: 0}
      m_TileFlags: 1
      m_ColliderType: 1
  - first: {x: -5, y: -2, z: 0}
    second:
      m_TileIndex: 84
      m_TileSpriteIndex: 84
      m_TileMatrixIndex: 0
      m_TileColorIndex: 0
      m_ObjectToInstantiate: {fileID: 0}
      m_TileFlags: 1
      m_ColliderType: 1
  - first: {x: -4, y: -2, z: 0}
    second:
      m_TileIndex: 85
      m_TileSpriteIndex: 85
      m_TileMatrixIndex: 0
      m_TileColorIndex: 0
      m_ObjectToInstantiate: {fileID: 0}
      m_TileFlags: 1
      m_ColliderType: 1
  - first: {x: 5, y: -2, z: 0}
    second:
      m_TileIndex: 86
      m_TileSpriteIndex: 86
      m_TileMatrixIndex: 0
      m_TileColorIndex: 0
      m_ObjectToInstantiate: {fileID: 0}
      m_TileFlags: 1
      m_ColliderType: 1
  - first: {x: 6, y: -2, z: 0}
    second:
      m_TileIndex: 87
      m_TileSpriteIndex: 87
      m_TileMatrixIndex: 0
      m_TileColorIndex: 0
      m_ObjectToInstantiate: {fileID: 0}
      m_TileFlags: 1
      m_ColliderType: 1
  - first: {x: 7, y: -2, z: 0}
    second:
      m_TileIndex: 88
      m_TileSpriteIndex: 88
      m_TileMatrixIndex: 0
      m_TileColorIndex: 0
      m_ObjectToInstantiate: {fileID: 0}
      m_TileFlags: 1
      m_ColliderType: 1
  - first: {x: 8, y: -2, z: 0}
    second:
      m_TileIndex: 89
      m_TileSpriteIndex: 89
      m_TileMatrixIndex: 0
      m_TileColorIndex: 0
      m_ObjectToInstantiate: {fileID: 0}
      m_TileFlags: 1
      m_ColliderType: 1
  - first: {x: 9, y: -2, z: 0}
    second:
      m_TileIndex: 90
      m_TileSpriteIndex: 90
      m_TileMatrixIndex: 0
      m_TileColorIndex: 0
      m_ObjectToInstantiate: {fileID: 0}
      m_TileFlags: 1
      m_ColliderType: 1
  - first: {x: 10, y: -2, z: 0}
    second:
      m_TileIndex: 91
      m_TileSpriteIndex: 91
      m_TileMatrixIndex: 0
      m_TileColorIndex: 0
      m_ObjectToInstantiate: {fileID: 0}
      m_TileFlags: 1
      m_ColliderType: 1
  - first: {x: 12, y: -2, z: 0}
    second:
      m_TileIndex: 92
      m_TileSpriteIndex: 92
      m_TileMatrixIndex: 0
      m_TileColorIndex: 0
      m_ObjectToInstantiate: {fileID: 0}
      m_TileFlags: 1
      m_ColliderType: 1
  - first: {x: 13, y: -2, z: 0}
    second:
      m_TileIndex: 93
      m_TileSpriteIndex: 93
      m_TileMatrixIndex: 0
      m_TileColorIndex: 0
      m_ObjectToInstantiate: {fileID: 0}
      m_TileFlags: 1
      m_ColliderType: 1
  - first: {x: 14, y: -2, z: 0}
    second:
      m_TileIndex: 94
      m_TileSpriteIndex: 94
      m_TileMatrixIndex: 0
      m_TileColorIndex: 0
      m_ObjectToInstantiate: {fileID: 0}
      m_TileFlags: 1
      m_ColliderType: 1
  - first: {x: 15, y: -2, z: 0}
    second:
      m_TileIndex: 95
      m_TileSpriteIndex: 95
      m_TileMatrixIndex: 0
      m_TileColorIndex: 0
      m_ObjectToInstantiate: {fileID: 0}
      m_TileFlags: 1
      m_ColliderType: 1
  - first: {x: 16, y: -2, z: 0}
    second:
      m_TileIndex: 96
      m_TileSpriteIndex: 96
      m_TileMatrixIndex: 0
      m_TileColorIndex: 0
      m_ObjectToInstantiate: {fileID: 0}
      m_TileFlags: 1
      m_ColliderType: 1
  - first: {x: 17, y: -2, z: 0}
    second:
      m_TileIndex: 97
      m_TileSpriteIndex: 97
      m_TileMatrixIndex: 0
      m_TileColorIndex: 0
      m_ObjectToInstantiate: {fileID: 0}
      m_TileFlags: 1
      m_ColliderType: 1
  - first: {x: 18, y: -2, z: 0}
    second:
      m_TileIndex: 98
      m_TileSpriteIndex: 98
      m_TileMatrixIndex: 0
      m_TileColorIndex: 0
      m_ObjectToInstantiate: {fileID: 0}
      m_TileFlags: 1
      m_ColliderType: 1
  - first: {x: 19, y: -2, z: 0}
    second:
      m_TileIndex: 99
      m_TileSpriteIndex: 99
      m_TileMatrixIndex: 0
      m_TileColorIndex: 0
      m_ObjectToInstantiate: {fileID: 0}
      m_TileFlags: 1
      m_ColliderType: 1
  - first: {x: 20, y: -2, z: 0}
    second:
      m_TileIndex: 100
      m_TileSpriteIndex: 100
      m_TileMatrixIndex: 0
      m_TileColorIndex: 0
      m_ObjectToInstantiate: {fileID: 0}
      m_TileFlags: 1
      m_ColliderType: 1
  - first: {x: 21, y: -2, z: 0}
    second:
      m_TileIndex: 101
      m_TileSpriteIndex: 101
      m_TileMatrixIndex: 0
      m_TileColorIndex: 0
      m_ObjectToInstantiate: {fileID: 0}
      m_TileFlags: 1
      m_ColliderType: 1
  - first: {x: -5, y: -1, z: 0}
    second:
      m_TileIndex: 63
      m_TileSpriteIndex: 63
      m_TileMatrixIndex: 0
      m_TileColorIndex: 0
      m_ObjectToInstantiate: {fileID: 0}
      m_TileFlags: 1
      m_ColliderType: 1
  - first: {x: -4, y: -1, z: 0}
    second:
      m_TileIndex: 64
      m_TileSpriteIndex: 64
      m_TileMatrixIndex: 0
      m_TileColorIndex: 0
      m_ObjectToInstantiate: {fileID: 0}
      m_TileFlags: 1
      m_ColliderType: 1
  - first: {x: -2, y: -1, z: 0}
    second:
      m_TileIndex: 65
      m_TileSpriteIndex: 65
      m_TileMatrixIndex: 0
      m_TileColorIndex: 0
      m_ObjectToInstantiate: {fileID: 0}
      m_TileFlags: 1
      m_ColliderType: 1
  - first: {x: -1, y: -1, z: 0}
    second:
      m_TileIndex: 66
      m_TileSpriteIndex: 66
      m_TileMatrixIndex: 0
      m_TileColorIndex: 0
      m_ObjectToInstantiate: {fileID: 0}
      m_TileFlags: 1
      m_ColliderType: 1
  - first: {x: 0, y: -1, z: 0}
    second:
      m_TileIndex: 67
      m_TileSpriteIndex: 67
      m_TileMatrixIndex: 0
      m_TileColorIndex: 0
      m_ObjectToInstantiate: {fileID: 0}
      m_TileFlags: 1
      m_ColliderType: 1
  - first: {x: 1, y: -1, z: 0}
    second:
      m_TileIndex: 68
      m_TileSpriteIndex: 68
      m_TileMatrixIndex: 0
      m_TileColorIndex: 0
      m_ObjectToInstantiate: {fileID: 0}
      m_TileFlags: 1
      m_ColliderType: 1
  - first: {x: 2, y: -1, z: 0}
    second:
      m_TileIndex: 69
      m_TileSpriteIndex: 69
      m_TileMatrixIndex: 0
      m_TileColorIndex: 0
      m_ObjectToInstantiate: {fileID: 0}
      m_TileFlags: 1
      m_ColliderType: 1
  - first: {x: 3, y: -1, z: 0}
    second:
      m_TileIndex: 70
      m_TileSpriteIndex: 70
      m_TileMatrixIndex: 0
      m_TileColorIndex: 0
      m_ObjectToInstantiate: {fileID: 0}
      m_TileFlags: 1
      m_ColliderType: 1
  - first: {x: 5, y: -1, z: 0}
    second:
      m_TileIndex: 71
      m_TileSpriteIndex: 71
      m_TileMatrixIndex: 0
      m_TileColorIndex: 0
      m_ObjectToInstantiate: {fileID: 0}
      m_TileFlags: 1
      m_ColliderType: 1
  - first: {x: 6, y: -1, z: 0}
    second:
      m_TileIndex: 72
      m_TileSpriteIndex: 72
      m_TileMatrixIndex: 0
      m_TileColorIndex: 0
      m_ObjectToInstantiate: {fileID: 0}
      m_TileFlags: 1
      m_ColliderType: 1
  - first: {x: 8, y: -1, z: 0}
    second:
      m_TileIndex: 73
      m_TileSpriteIndex: 73
      m_TileMatrixIndex: 0
      m_TileColorIndex: 0
      m_ObjectToInstantiate: {fileID: 0}
      m_TileFlags: 1
      m_ColliderType: 1
  - first: {x: 9, y: -1, z: 0}
    second:
      m_TileIndex: 74
      m_TileSpriteIndex: 74
      m_TileMatrixIndex: 0
      m_TileColorIndex: 0
      m_ObjectToInstantiate: {fileID: 0}
      m_TileFlags: 1
      m_ColliderType: 1
  - first: {x: 10, y: -1, z: 0}
    second:
      m_TileIndex: 75
      m_TileSpriteIndex: 75
      m_TileMatrixIndex: 0
      m_TileColorIndex: 0
      m_ObjectToInstantiate: {fileID: 0}
      m_TileFlags: 1
      m_ColliderType: 1
  - first: {x: 11, y: -1, z: 0}
    second:
      m_TileIndex: 76
      m_TileSpriteIndex: 76
      m_TileMatrixIndex: 0
      m_TileColorIndex: 0
      m_ObjectToInstantiate: {fileID: 0}
      m_TileFlags: 1
      m_ColliderType: 1
  - first: {x: 12, y: -1, z: 0}
    second:
      m_TileIndex: 77
      m_TileSpriteIndex: 77
      m_TileMatrixIndex: 0
      m_TileColorIndex: 0
      m_ObjectToInstantiate: {fileID: 0}
      m_TileFlags: 1
      m_ColliderType: 1
  - first: {x: 13, y: -1, z: 0}
    second:
      m_TileIndex: 78
      m_TileSpriteIndex: 78
      m_TileMatrixIndex: 0
      m_TileColorIndex: 0
      m_ObjectToInstantiate: {fileID: 0}
      m_TileFlags: 1
      m_ColliderType: 1
  - first: {x: 14, y: -1, z: 0}
    second:
      m_TileIndex: 79
      m_TileSpriteIndex: 79
      m_TileMatrixIndex: 0
      m_TileColorIndex: 0
      m_ObjectToInstantiate: {fileID: 0}
      m_TileFlags: 1
      m_ColliderType: 1
  - first: {x: 15, y: -1, z: 0}
    second:
      m_TileIndex: 80
      m_TileSpriteIndex: 80
      m_TileMatrixIndex: 0
      m_TileColorIndex: 0
      m_ObjectToInstantiate: {fileID: 0}
      m_TileFlags: 1
      m_ColliderType: 1
  - first: {x: 16, y: -1, z: 0}
    second:
      m_TileIndex: 81
      m_TileSpriteIndex: 81
      m_TileMatrixIndex: 0
      m_TileColorIndex: 0
      m_ObjectToInstantiate: {fileID: 0}
      m_TileFlags: 1
      m_ColliderType: 1
  - first: {x: 17, y: -1, z: 0}
    second:
      m_TileIndex: 82
      m_TileSpriteIndex: 82
      m_TileMatrixIndex: 0
      m_TileColorIndex: 0
      m_ObjectToInstantiate: {fileID: 0}
      m_TileFlags: 1
      m_ColliderType: 1
  - first: {x: 18, y: -1, z: 0}
    second:
      m_TileIndex: 83
      m_TileSpriteIndex: 83
      m_TileMatrixIndex: 0
      m_TileColorIndex: 0
      m_ObjectToInstantiate: {fileID: 0}
      m_TileFlags: 1
      m_ColliderType: 1
  - first: {x: -5, y: 0, z: 0}
    second:
      m_TileIndex: 40
      m_TileSpriteIndex: 40
      m_TileMatrixIndex: 0
      m_TileColorIndex: 0
      m_ObjectToInstantiate: {fileID: 0}
      m_TileFlags: 1
      m_ColliderType: 1
  - first: {x: -4, y: 0, z: 0}
    second:
      m_TileIndex: 41
      m_TileSpriteIndex: 41
      m_TileMatrixIndex: 0
      m_TileColorIndex: 0
      m_ObjectToInstantiate: {fileID: 0}
      m_TileFlags: 1
      m_ColliderType: 1
  - first: {x: -3, y: 0, z: 0}
    second:
      m_TileIndex: 42
      m_TileSpriteIndex: 42
      m_TileMatrixIndex: 0
      m_TileColorIndex: 0
      m_ObjectToInstantiate: {fileID: 0}
      m_TileFlags: 1
      m_ColliderType: 1
  - first: {x: -2, y: 0, z: 0}
    second:
      m_TileIndex: 43
      m_TileSpriteIndex: 43
      m_TileMatrixIndex: 0
      m_TileColorIndex: 0
      m_ObjectToInstantiate: {fileID: 0}
      m_TileFlags: 1
      m_ColliderType: 1
  - first: {x: -1, y: 0, z: 0}
    second:
      m_TileIndex: 44
      m_TileSpriteIndex: 44
      m_TileMatrixIndex: 0
      m_TileColorIndex: 0
      m_ObjectToInstantiate: {fileID: 0}
      m_TileFlags: 1
      m_ColliderType: 1
  - first: {x: 0, y: 0, z: 0}
    second:
      m_TileIndex: 45
      m_TileSpriteIndex: 45
      m_TileMatrixIndex: 0
      m_TileColorIndex: 0
      m_ObjectToInstantiate: {fileID: 0}
      m_TileFlags: 1
      m_ColliderType: 1
  - first: {x: 1, y: 0, z: 0}
    second:
      m_TileIndex: 46
      m_TileSpriteIndex: 46
      m_TileMatrixIndex: 0
      m_TileColorIndex: 0
      m_ObjectToInstantiate: {fileID: 0}
      m_TileFlags: 1
      m_ColliderType: 1
  - first: {x: 2, y: 0, z: 0}
    second:
      m_TileIndex: 47
      m_TileSpriteIndex: 47
      m_TileMatrixIndex: 0
      m_TileColorIndex: 0
      m_ObjectToInstantiate: {fileID: 0}
      m_TileFlags: 1
      m_ColliderType: 1
  - first: {x: 3, y: 0, z: 0}
    second:
      m_TileIndex: 48
      m_TileSpriteIndex: 48
      m_TileMatrixIndex: 0
      m_TileColorIndex: 0
      m_ObjectToInstantiate: {fileID: 0}
      m_TileFlags: 1
      m_ColliderType: 1
  - first: {x: 4, y: 0, z: 0}
    second:
      m_TileIndex: 49
      m_TileSpriteIndex: 49
      m_TileMatrixIndex: 0
      m_TileColorIndex: 0
      m_ObjectToInstantiate: {fileID: 0}
      m_TileFlags: 1
      m_ColliderType: 1
  - first: {x: 5, y: 0, z: 0}
    second:
      m_TileIndex: 50
      m_TileSpriteIndex: 50
      m_TileMatrixIndex: 0
      m_TileColorIndex: 0
      m_ObjectToInstantiate: {fileID: 0}
      m_TileFlags: 1
      m_ColliderType: 1
  - first: {x: 6, y: 0, z: 0}
    second:
      m_TileIndex: 51
      m_TileSpriteIndex: 51
      m_TileMatrixIndex: 0
      m_TileColorIndex: 0
      m_ObjectToInstantiate: {fileID: 0}
      m_TileFlags: 1
      m_ColliderType: 1
  - first: {x: 7, y: 0, z: 0}
    second:
      m_TileIndex: 52
      m_TileSpriteIndex: 52
      m_TileMatrixIndex: 0
      m_TileColorIndex: 0
      m_ObjectToInstantiate: {fileID: 0}
      m_TileFlags: 1
      m_ColliderType: 1
  - first: {x: 8, y: 0, z: 0}
    second:
      m_TileIndex: 53
      m_TileSpriteIndex: 53
      m_TileMatrixIndex: 0
      m_TileColorIndex: 0
      m_ObjectToInstantiate: {fileID: 0}
      m_TileFlags: 1
      m_ColliderType: 1
  - first: {x: 9, y: 0, z: 0}
    second:
      m_TileIndex: 54
      m_TileSpriteIndex: 54
      m_TileMatrixIndex: 0
      m_TileColorIndex: 0
      m_ObjectToInstantiate: {fileID: 0}
      m_TileFlags: 1
      m_ColliderType: 1
  - first: {x: 10, y: 0, z: 0}
    second:
      m_TileIndex: 55
      m_TileSpriteIndex: 55
      m_TileMatrixIndex: 0
      m_TileColorIndex: 0
      m_ObjectToInstantiate: {fileID: 0}
      m_TileFlags: 1
      m_ColliderType: 1
  - first: {x: 11, y: 0, z: 0}
    second:
      m_TileIndex: 56
      m_TileSpriteIndex: 56
      m_TileMatrixIndex: 0
      m_TileColorIndex: 0
      m_ObjectToInstantiate: {fileID: 0}
      m_TileFlags: 1
      m_ColliderType: 1
  - first: {x: 13, y: 0, z: 0}
    second:
      m_TileIndex: 57
      m_TileSpriteIndex: 57
      m_TileMatrixIndex: 0
      m_TileColorIndex: 0
      m_ObjectToInstantiate: {fileID: 0}
      m_TileFlags: 1
      m_ColliderType: 1
  - first: {x: 14, y: 0, z: 0}
    second:
      m_TileIndex: 58
      m_TileSpriteIndex: 58
      m_TileMatrixIndex: 0
      m_TileColorIndex: 0
      m_ObjectToInstantiate: {fileID: 0}
      m_TileFlags: 1
      m_ColliderType: 1
  - first: {x: 15, y: 0, z: 0}
    second:
      m_TileIndex: 59
      m_TileSpriteIndex: 59
      m_TileMatrixIndex: 0
      m_TileColorIndex: 0
      m_ObjectToInstantiate: {fileID: 0}
      m_TileFlags: 1
      m_ColliderType: 1
  - first: {x: 16, y: 0, z: 0}
    second:
      m_TileIndex: 60
      m_TileSpriteIndex: 60
      m_TileMatrixIndex: 0
      m_TileColorIndex: 0
      m_ObjectToInstantiate: {fileID: 0}
      m_TileFlags: 1
      m_ColliderType: 1
  - first: {x: 17, y: 0, z: 0}
    second:
      m_TileIndex: 61
      m_TileSpriteIndex: 61
      m_TileMatrixIndex: 0
      m_TileColorIndex: 0
      m_ObjectToInstantiate: {fileID: 0}
      m_TileFlags: 1
      m_ColliderType: 1
  - first: {x: 18, y: 0, z: 0}
    second:
      m_TileIndex: 62
      m_TileSpriteIndex: 62
      m_TileMatrixIndex: 0
      m_TileColorIndex: 0
      m_ObjectToInstantiate: {fileID: 0}
      m_TileFlags: 1
      m_ColliderType: 1
  - first: {x: -4, y: 1, z: 0}
    second:
      m_TileIndex: 24
      m_TileSpriteIndex: 24
      m_TileMatrixIndex: 0
      m_TileColorIndex: 0
      m_ObjectToInstantiate: {fileID: 0}
      m_TileFlags: 1
      m_ColliderType: 1
  - first: {x: -2, y: 1, z: 0}
    second:
      m_TileIndex: 25
      m_TileSpriteIndex: 25
      m_TileMatrixIndex: 0
      m_TileColorIndex: 0
      m_ObjectToInstantiate: {fileID: 0}
      m_TileFlags: 1
      m_ColliderType: 1
  - first: {x: -1, y: 1, z: 0}
    second:
      m_TileIndex: 26
      m_TileSpriteIndex: 26
      m_TileMatrixIndex: 0
      m_TileColorIndex: 0
      m_ObjectToInstantiate: {fileID: 0}
      m_TileFlags: 1
      m_ColliderType: 1
  - first: {x: 0, y: 1, z: 0}
    second:
      m_TileIndex: 27
      m_TileSpriteIndex: 27
      m_TileMatrixIndex: 0
      m_TileColorIndex: 0
      m_ObjectToInstantiate: {fileID: 0}
      m_TileFlags: 1
      m_ColliderType: 1
  - first: {x: 1, y: 1, z: 0}
    second:
      m_TileIndex: 28
      m_TileSpriteIndex: 28
      m_TileMatrixIndex: 0
      m_TileColorIndex: 0
      m_ObjectToInstantiate: {fileID: 0}
      m_TileFlags: 1
      m_ColliderType: 1
  - first: {x: 2, y: 1, z: 0}
    second:
      m_TileIndex: 29
      m_TileSpriteIndex: 29
      m_TileMatrixIndex: 0
      m_TileColorIndex: 0
      m_ObjectToInstantiate: {fileID: 0}
      m_TileFlags: 1
      m_ColliderType: 1
  - first: {x: 5, y: 1, z: 0}
    second:
      m_TileIndex: 30
      m_TileSpriteIndex: 30
      m_TileMatrixIndex: 0
      m_TileColorIndex: 0
      m_ObjectToInstantiate: {fileID: 0}
      m_TileFlags: 1
      m_ColliderType: 1
  - first: {x: 8, y: 1, z: 0}
    second:
      m_TileIndex: 31
      m_TileSpriteIndex: 31
      m_TileMatrixIndex: 0
      m_TileColorIndex: 0
      m_ObjectToInstantiate: {fileID: 0}
      m_TileFlags: 1
      m_ColliderType: 1
  - first: {x: 9, y: 1, z: 0}
    second:
      m_TileIndex: 32
      m_TileSpriteIndex: 32
      m_TileMatrixIndex: 0
      m_TileColorIndex: 0
      m_ObjectToInstantiate: {fileID: 0}
      m_TileFlags: 1
      m_ColliderType: 1
  - first: {x: 12, y: 1, z: 0}
    second:
      m_TileIndex: 33
      m_TileSpriteIndex: 33
      m_TileMatrixIndex: 0
      m_TileColorIndex: 0
      m_ObjectToInstantiate: {fileID: 0}
      m_TileFlags: 1
      m_ColliderType: 1
  - first: {x: 13, y: 1, z: 0}
    second:
      m_TileIndex: 34
      m_TileSpriteIndex: 34
      m_TileMatrixIndex: 0
      m_TileColorIndex: 0
      m_ObjectToInstantiate: {fileID: 0}
      m_TileFlags: 1
      m_ColliderType: 1
  - first: {x: 14, y: 1, z: 0}
    second:
      m_TileIndex: 35
      m_TileSpriteIndex: 35
      m_TileMatrixIndex: 0
      m_TileColorIndex: 0
      m_ObjectToInstantiate: {fileID: 0}
      m_TileFlags: 1
      m_ColliderType: 1
  - first: {x: 15, y: 1, z: 0}
    second:
      m_TileIndex: 36
      m_TileSpriteIndex: 36
      m_TileMatrixIndex: 0
      m_TileColorIndex: 0
      m_ObjectToInstantiate: {fileID: 0}
      m_TileFlags: 1
      m_ColliderType: 1
  - first: {x: 16, y: 1, z: 0}
    second:
      m_TileIndex: 37
      m_TileSpriteIndex: 37
      m_TileMatrixIndex: 0
      m_TileColorIndex: 0
      m_ObjectToInstantiate: {fileID: 0}
      m_TileFlags: 1
      m_ColliderType: 1
  - first: {x: 17, y: 1, z: 0}
    second:
      m_TileIndex: 38
      m_TileSpriteIndex: 38
      m_TileMatrixIndex: 0
      m_TileColorIndex: 0
      m_ObjectToInstantiate: {fileID: 0}
      m_TileFlags: 1
      m_ColliderType: 1
  - first: {x: 18, y: 1, z: 0}
    second:
      m_TileIndex: 39
      m_TileSpriteIndex: 39
      m_TileMatrixIndex: 0
      m_TileColorIndex: 0
      m_ObjectToInstantiate: {fileID: 0}
      m_TileFlags: 1
      m_ColliderType: 1
  - first: {x: -4, y: 2, z: 0}
    second:
      m_TileIndex: 15
      m_TileSpriteIndex: 15
      m_TileMatrixIndex: 0
      m_TileColorIndex: 0
      m_ObjectToInstantiate: {fileID: 0}
      m_TileFlags: 1
      m_ColliderType: 1
  - first: {x: -2, y: 2, z: 0}
    second:
      m_TileIndex: 16
      m_TileSpriteIndex: 16
      m_TileMatrixIndex: 0
      m_TileColorIndex: 0
      m_ObjectToInstantiate: {fileID: 0}
      m_TileFlags: 1
      m_ColliderType: 1
  - first: {x: 5, y: 2, z: 0}
    second:
      m_TileIndex: 17
      m_TileSpriteIndex: 17
      m_TileMatrixIndex: 0
      m_TileColorIndex: 0
      m_ObjectToInstantiate: {fileID: 0}
      m_TileFlags: 1
      m_ColliderType: 1
  - first: {x: 13, y: 2, z: 0}
    second:
      m_TileIndex: 18
      m_TileSpriteIndex: 18
      m_TileMatrixIndex: 0
      m_TileColorIndex: 0
      m_ObjectToInstantiate: {fileID: 0}
      m_TileFlags: 1
      m_ColliderType: 1
  - first: {x: 14, y: 2, z: 0}
    second:
      m_TileIndex: 19
      m_TileSpriteIndex: 19
      m_TileMatrixIndex: 0
      m_TileColorIndex: 0
      m_ObjectToInstantiate: {fileID: 0}
      m_TileFlags: 1
      m_ColliderType: 1
  - first: {x: 15, y: 2, z: 0}
    second:
      m_TileIndex: 20
      m_TileSpriteIndex: 20
      m_TileMatrixIndex: 0
      m_TileColorIndex: 0
      m_ObjectToInstantiate: {fileID: 0}
      m_TileFlags: 1
      m_ColliderType: 1
  - first: {x: 16, y: 2, z: 0}
    second:
      m_TileIndex: 21
      m_TileSpriteIndex: 21
      m_TileMatrixIndex: 0
      m_TileColorIndex: 0
      m_ObjectToInstantiate: {fileID: 0}
      m_TileFlags: 1
      m_ColliderType: 1
  - first: {x: 17, y: 2, z: 0}
    second:
      m_TileIndex: 22
      m_TileSpriteIndex: 22
      m_TileMatrixIndex: 0
      m_TileColorIndex: 0
      m_ObjectToInstantiate: {fileID: 0}
      m_TileFlags: 1
      m_ColliderType: 1
  - first: {x: 18, y: 2, z: 0}
    second:
      m_TileIndex: 23
      m_TileSpriteIndex: 23
      m_TileMatrixIndex: 0
      m_TileColorIndex: 0
      m_ObjectToInstantiate: {fileID: 0}
      m_TileFlags: 1
      m_ColliderType: 1
  - first: {x: -4, y: 3, z: 0}
    second:
      m_TileIndex: 7
      m_TileSpriteIndex: 7
      m_TileMatrixIndex: 0
      m_TileColorIndex: 0
      m_ObjectToInstantiate: {fileID: 0}
      m_TileFlags: 1
      m_ColliderType: 1
  - first: {x: -2, y: 3, z: 0}
    second:
      m_TileIndex: 8
      m_TileSpriteIndex: 8
      m_TileMatrixIndex: 0
      m_TileColorIndex: 0
      m_ObjectToInstantiate: {fileID: 0}
      m_TileFlags: 1
      m_ColliderType: 1
  - first: {x: 5, y: 3, z: 0}
    second:
      m_TileIndex: 9
      m_TileSpriteIndex: 9
      m_TileMatrixIndex: 0
      m_TileColorIndex: 0
      m_ObjectToInstantiate: {fileID: 0}
      m_TileFlags: 1
      m_ColliderType: 1
  - first: {x: 13, y: 3, z: 0}
    second:
      m_TileIndex: 10
      m_TileSpriteIndex: 10
      m_TileMatrixIndex: 0
      m_TileColorIndex: 0
      m_ObjectToInstantiate: {fileID: 0}
      m_TileFlags: 1
      m_ColliderType: 1
  - first: {x: 14, y: 3, z: 0}
    second:
      m_TileIndex: 11
      m_TileSpriteIndex: 11
      m_TileMatrixIndex: 0
      m_TileColorIndex: 0
      m_ObjectToInstantiate: {fileID: 0}
      m_TileFlags: 1
      m_ColliderType: 1
  - first: {x: 15, y: 3, z: 0}
    second:
      m_TileIndex: 12
      m_TileSpriteIndex: 12
      m_TileMatrixIndex: 0
      m_TileColorIndex: 0
      m_ObjectToInstantiate: {fileID: 0}
      m_TileFlags: 1
      m_ColliderType: 1
  - first: {x: 16, y: 3, z: 0}
    second:
      m_TileIndex: 13
      m_TileSpriteIndex: 13
      m_TileMatrixIndex: 0
      m_TileColorIndex: 0
      m_ObjectToInstantiate: {fileID: 0}
      m_TileFlags: 1
      m_ColliderType: 1
  - first: {x: 18, y: 3, z: 0}
    second:
      m_TileIndex: 14
      m_TileSpriteIndex: 14
      m_TileMatrixIndex: 0
      m_TileColorIndex: 0
      m_ObjectToInstantiate: {fileID: 0}
      m_TileFlags: 1
      m_ColliderType: 1
  - first: {x: -4, y: 4, z: 0}
    second:
      m_TileIndex: 0
      m_TileSpriteIndex: 0
      m_TileMatrixIndex: 0
      m_TileColorIndex: 0
      m_ObjectToInstantiate: {fileID: 0}
      m_TileFlags: 1
      m_ColliderType: 1
  - first: {x: -2, y: 4, z: 0}
    second:
      m_TileIndex: 1
      m_TileSpriteIndex: 1
      m_TileMatrixIndex: 0
      m_TileColorIndex: 0
      m_ObjectToInstantiate: {fileID: 0}
      m_TileFlags: 1
      m_ColliderType: 1
  - first: {x: 5, y: 4, z: 0}
    second:
      m_TileIndex: 2
      m_TileSpriteIndex: 2
      m_TileMatrixIndex: 0
      m_TileColorIndex: 0
      m_ObjectToInstantiate: {fileID: 0}
      m_TileFlags: 1
      m_ColliderType: 1
  - first: {x: 13, y: 4, z: 0}
    second:
      m_TileIndex: 3
      m_TileSpriteIndex: 3
      m_TileMatrixIndex: 0
      m_TileColorIndex: 0
      m_ObjectToInstantiate: {fileID: 0}
      m_TileFlags: 1
      m_ColliderType: 1
  - first: {x: 15, y: 4, z: 0}
    second:
      m_TileIndex: 4
      m_TileSpriteIndex: 4
      m_TileMatrixIndex: 0
      m_TileColorIndex: 0
      m_ObjectToInstantiate: {fileID: 0}
      m_TileFlags: 1
      m_ColliderType: 1
  - first: {x: 16, y: 4, z: 0}
    second:
      m_TileIndex: 5
      m_TileSpriteIndex: 5
      m_TileMatrixIndex: 0
      m_TileColorIndex: 0
      m_ObjectToInstantiate: {fileID: 0}
      m_TileFlags: 1
      m_ColliderType: 1
  - first: {x: 18, y: 4, z: 0}
    second:
      m_TileIndex: 6
      m_TileSpriteIndex: 6
      m_TileMatrixIndex: 0
      m_TileColorIndex: 0
      m_ObjectToInstantiate: {fileID: 0}
      m_TileFlags: 1
      m_ColliderType: 1
  m_AnimatedTiles: {}
  m_TileAssetArray:
  - m_RefCount: 1
    m_Data: {fileID: 11400000, guid: 59623cde255c21947ae140b80cd0f535, type: 2}
  - m_RefCount: 1
    m_Data: {fileID: 11400000, guid: 68e6d6dde878cc4419f9412ba10001d8, type: 2}
  - m_RefCount: 1
    m_Data: {fileID: 11400000, guid: ab2b0f05b3f7d0043a220581f37c483f, type: 2}
  - m_RefCount: 1
    m_Data: {fileID: 11400000, guid: e12538366992c3c4b9a05204ff91037d, type: 2}
  - m_RefCount: 1
    m_Data: {fileID: 11400000, guid: 0c52a4d2f2c16f8449818a92ceb23d7f, type: 2}
  - m_RefCount: 1
    m_Data: {fileID: 11400000, guid: 951fad8fe15390544b1a9ed76e98d6c8, type: 2}
  - m_RefCount: 1
    m_Data: {fileID: 11400000, guid: de02fa191fd986d45a1799ed1386f661, type: 2}
  - m_RefCount: 1
    m_Data: {fileID: 11400000, guid: a302e95f9a35e9c4c8e46a5e7cdafb8a, type: 2}
  - m_RefCount: 1
    m_Data: {fileID: 11400000, guid: 140e5ee2f6444c04bb906f08dbccbcfd, type: 2}
  - m_RefCount: 1
    m_Data: {fileID: 11400000, guid: fba557121367ee241a18428c9b6d803a, type: 2}
  - m_RefCount: 1
    m_Data: {fileID: 11400000, guid: cd2959067ace48b46aff92e0f56b68a8, type: 2}
  - m_RefCount: 1
    m_Data: {fileID: 11400000, guid: ab1f5f05f83dbd74ab31bc9141d52ef0, type: 2}
  - m_RefCount: 1
    m_Data: {fileID: 11400000, guid: 16c600a603a4587499baa3904dbf53f9, type: 2}
  - m_RefCount: 1
    m_Data: {fileID: 11400000, guid: 1da833c31ba216f4b8e48e4a221cff9c, type: 2}
  - m_RefCount: 1
    m_Data: {fileID: 11400000, guid: df5d111947cc5b34698c9e58eadaed49, type: 2}
  - m_RefCount: 1
    m_Data: {fileID: 11400000, guid: 2e8174234937fd44481c2d0ac180ed44, type: 2}
  - m_RefCount: 1
    m_Data: {fileID: 11400000, guid: 6a90c0cec45a1f242b8b7d74cbd6cdf9, type: 2}
  - m_RefCount: 1
    m_Data: {fileID: 11400000, guid: ea8280ec5a994e6438fe9b2af67e7025, type: 2}
  - m_RefCount: 1
    m_Data: {fileID: 11400000, guid: bdbbb97966ce0e24bb6f6a11ecd53de1, type: 2}
  - m_RefCount: 1
    m_Data: {fileID: 11400000, guid: c67b62afc311d2149aec795c06ed43b8, type: 2}
  - m_RefCount: 1
    m_Data: {fileID: 11400000, guid: 9ae74aa66abe42343b7b76aa700e988c, type: 2}
  - m_RefCount: 1
    m_Data: {fileID: 11400000, guid: f2636b6c1e14bb94fa5ac6ae8fd4b9f8, type: 2}
  - m_RefCount: 1
    m_Data: {fileID: 11400000, guid: 3774b9cf66832a044888a92d46ee81ef, type: 2}
  - m_RefCount: 1
    m_Data: {fileID: 11400000, guid: bebf1ce894c0ea84bbc83f2a94a66c78, type: 2}
  - m_RefCount: 1
    m_Data: {fileID: 11400000, guid: c06247ee29f786b4c80601d273416352, type: 2}
  - m_RefCount: 1
    m_Data: {fileID: 11400000, guid: d165ecde421b35a4b8c17762cd0e8ec6, type: 2}
  - m_RefCount: 1
    m_Data: {fileID: 11400000, guid: 61e532760f57e6e4ab75a6b7ca202ad9, type: 2}
  - m_RefCount: 1
    m_Data: {fileID: 11400000, guid: 22f50d372d1ae714d908adcf395a7139, type: 2}
  - m_RefCount: 1
    m_Data: {fileID: 11400000, guid: 90f4cc4111e28ba43aca6a407e8315ae, type: 2}
  - m_RefCount: 1
    m_Data: {fileID: 11400000, guid: 521bd78426ffc7b4b8a9841479c46375, type: 2}
  - m_RefCount: 1
    m_Data: {fileID: 11400000, guid: 74df6d4a94ab5974eafcee54ee5e2acf, type: 2}
  - m_RefCount: 1
    m_Data: {fileID: 11400000, guid: b8a2c9b39c47db64abea4bfd1d52fb65, type: 2}
  - m_RefCount: 1
    m_Data: {fileID: 11400000, guid: 96b887649e212b641a836f63ee16b24e, type: 2}
  - m_RefCount: 1
    m_Data: {fileID: 11400000, guid: 3e429753d1b118c41a4d667a85fd8434, type: 2}
  - m_RefCount: 1
    m_Data: {fileID: 11400000, guid: 369df9be7394f104fa365b1312af3409, type: 2}
  - m_RefCount: 1
    m_Data: {fileID: 11400000, guid: f2f83fc2a89384f4fb752edc87d73413, type: 2}
  - m_RefCount: 1
    m_Data: {fileID: 11400000, guid: 0292ded1b56fda143929385d848e94ed, type: 2}
  - m_RefCount: 1
    m_Data: {fileID: 11400000, guid: 4a18677589be1a94aa097bbdc95690d8, type: 2}
  - m_RefCount: 1
    m_Data: {fileID: 11400000, guid: 7c7f486c45fcd0643bdc8deb84afb2f2, type: 2}
  - m_RefCount: 1
    m_Data: {fileID: 11400000, guid: 0efd0657524afc4458d223a60f83d0ef, type: 2}
  - m_RefCount: 1
    m_Data: {fileID: 11400000, guid: 6654af825431df24987eff635d6526ed, type: 2}
  - m_RefCount: 1
    m_Data: {fileID: 11400000, guid: ee3e463294caea048aaaf67d69a70c43, type: 2}
  - m_RefCount: 1
    m_Data: {fileID: 11400000, guid: f739d41a4c4f6ba40990cd03e90685bd, type: 2}
  - m_RefCount: 1
    m_Data: {fileID: 11400000, guid: 5037b12988121b04087353381724cc24, type: 2}
  - m_RefCount: 1
    m_Data: {fileID: 11400000, guid: 6c63ad34beb429c40aae6d076779867e, type: 2}
  - m_RefCount: 1
    m_Data: {fileID: 11400000, guid: f77e580933e70b049adf481dbf7678f7, type: 2}
  - m_RefCount: 1
    m_Data: {fileID: 11400000, guid: c531d5b7c2a22824fa80cf0eac1c0b3e, type: 2}
  - m_RefCount: 1
    m_Data: {fileID: 11400000, guid: 4072d9d0550ad0741a0f0ab55e7d6c32, type: 2}
  - m_RefCount: 1
    m_Data: {fileID: 11400000, guid: 883aee0c2cdff8d448d1fd1c41b45be0, type: 2}
  - m_RefCount: 1
    m_Data: {fileID: 11400000, guid: 6ade6180973f0b84cabec8cd14e92839, type: 2}
  - m_RefCount: 1
    m_Data: {fileID: 11400000, guid: d1eee1900a4adc74bb365ccc1123bd02, type: 2}
  - m_RefCount: 1
    m_Data: {fileID: 11400000, guid: 99952a155767f0749bbc2c9da40b5151, type: 2}
  - m_RefCount: 1
    m_Data: {fileID: 11400000, guid: 3a4d3d427f13d3a4c90611ab5ebb6dc6, type: 2}
  - m_RefCount: 1
    m_Data: {fileID: 11400000, guid: 2907fb07294a6c6458318ba28db3621f, type: 2}
  - m_RefCount: 1
    m_Data: {fileID: 11400000, guid: 3dfd5b15be944a841b6c280908630c3e, type: 2}
  - m_RefCount: 1
    m_Data: {fileID: 11400000, guid: d875ccf3c127e0044a68f1ded3173fc8, type: 2}
  - m_RefCount: 1
    m_Data: {fileID: 11400000, guid: 904ad5cbde9fd544888327cfd830250a, type: 2}
  - m_RefCount: 1
    m_Data: {fileID: 11400000, guid: 2e823abae10e0ff498fa6a0f8c1bbcb1, type: 2}
  - m_RefCount: 1
    m_Data: {fileID: 11400000, guid: d296742909ef0db43b3cad7264b28168, type: 2}
  - m_RefCount: 1
    m_Data: {fileID: 11400000, guid: c7e8b1f19f4befe409295f4f4d88430f, type: 2}
  - m_RefCount: 1
    m_Data: {fileID: 11400000, guid: 461037a7c24cc654e83891b54d0e2837, type: 2}
  - m_RefCount: 1
    m_Data: {fileID: 11400000, guid: 4febcc7887181964b9e0e240b1e3cb42, type: 2}
  - m_RefCount: 1
    m_Data: {fileID: 11400000, guid: d8e59a5491ee9dc43b710d912d552643, type: 2}
  - m_RefCount: 1
    m_Data: {fileID: 11400000, guid: 190aabcff7ecd6a439693e7380ab2c9b, type: 2}
  - m_RefCount: 1
    m_Data: {fileID: 11400000, guid: 06f8fadb9983f394091e8e40f352cdff, type: 2}
  - m_RefCount: 1
    m_Data: {fileID: 11400000, guid: 510c90c2842b36a4295d4a728ef3def6, type: 2}
  - m_RefCount: 1
    m_Data: {fileID: 11400000, guid: 0b9d6497f82046c478c9f5613fca4430, type: 2}
  - m_RefCount: 1
    m_Data: {fileID: 11400000, guid: 8b19348994e86194eb1538a383bb9383, type: 2}
  - m_RefCount: 1
    m_Data: {fileID: 11400000, guid: 48a60e485851494469795f833a0bf464, type: 2}
  - m_RefCount: 1
    m_Data: {fileID: 11400000, guid: ab698d4391138e542a6d8d23168f0e41, type: 2}
  - m_RefCount: 1
    m_Data: {fileID: 11400000, guid: ca981e3fa0b63474ab872a390f2b43b7, type: 2}
  - m_RefCount: 1
    m_Data: {fileID: 11400000, guid: b58f57e037e6bd148ace4ef8fd49973e, type: 2}
  - m_RefCount: 1
    m_Data: {fileID: 11400000, guid: 1857756d87ef1b54abcb884e5ad310bd, type: 2}
  - m_RefCount: 1
    m_Data: {fileID: 11400000, guid: a523e7199601d9049bf8cf04438b551c, type: 2}
  - m_RefCount: 1
    m_Data: {fileID: 11400000, guid: cf25fad0392b65c4089c37fc0aa4a157, type: 2}
  - m_RefCount: 1
    m_Data: {fileID: 11400000, guid: 5183c9af3a401d54e8519abebaff0a2c, type: 2}
  - m_RefCount: 1
    m_Data: {fileID: 11400000, guid: ae382a4f3d6c5af4a9426d066ce07f09, type: 2}
  - m_RefCount: 1
    m_Data: {fileID: 11400000, guid: 2c215cc9213fe8e43a3d4ad5257201df, type: 2}
  - m_RefCount: 1
    m_Data: {fileID: 11400000, guid: 5d361d252ba99ad43bfd21f7fff0cba0, type: 2}
  - m_RefCount: 1
    m_Data: {fileID: 11400000, guid: 9ebcbce2d34183c4e8e2300a7f8b61c3, type: 2}
  - m_RefCount: 1
    m_Data: {fileID: 11400000, guid: 7e1f9beb8465d714fa804048afb94834, type: 2}
  - m_RefCount: 1
    m_Data: {fileID: 11400000, guid: dd12dc60a80a2ca4fa33386836bb4e9c, type: 2}
  - m_RefCount: 1
    m_Data: {fileID: 11400000, guid: 9535cb87d2d116e4fbb1bc6d616e1add, type: 2}
  - m_RefCount: 1
    m_Data: {fileID: 11400000, guid: 97ca7ce925e8ff3448533dbd349213fa, type: 2}
  - m_RefCount: 1
    m_Data: {fileID: 11400000, guid: 8a560d6c16a9ab2439c5bc26b2486d5e, type: 2}
  - m_RefCount: 1
    m_Data: {fileID: 11400000, guid: 17ad02308f8e96f4eb609e852aa959c9, type: 2}
  - m_RefCount: 1
    m_Data: {fileID: 11400000, guid: 7cd2a347bb6c84445aab12cf4106affb, type: 2}
  - m_RefCount: 1
    m_Data: {fileID: 11400000, guid: a5dd213187fb26a4d98e7a39c0ab8e29, type: 2}
  - m_RefCount: 1
    m_Data: {fileID: 11400000, guid: bcee4bf49c735e84b8d9d56fca65d3f0, type: 2}
  - m_RefCount: 1
    m_Data: {fileID: 11400000, guid: 9a2bac6c277f54c439ef4427b970d66c, type: 2}
  - m_RefCount: 1
    m_Data: {fileID: 11400000, guid: c0b2ec79eb8e5274d967ac739e0c9571, type: 2}
  - m_RefCount: 1
    m_Data: {fileID: 11400000, guid: 42aec2924d7e343468ca44d847ab7b2a, type: 2}
  - m_RefCount: 1
    m_Data: {fileID: 11400000, guid: 98d7a9088dc747847ba010264ffd38eb, type: 2}
  - m_RefCount: 1
    m_Data: {fileID: 11400000, guid: 0b7e867fa6da6834eaa1fae0a5a32f2b, type: 2}
  - m_RefCount: 1
    m_Data: {fileID: 11400000, guid: 28b087c4c809f7e4d972647ae9cdcba6, type: 2}
  - m_RefCount: 1
    m_Data: {fileID: 11400000, guid: fcf51f704e3f5f241a821a156d6dcb36, type: 2}
  - m_RefCount: 1
    m_Data: {fileID: 11400000, guid: 24efd96705cd9d643bc81950a600c833, type: 2}
  - m_RefCount: 1
    m_Data: {fileID: 11400000, guid: 4969d9bfa0b4c004abfc4d59ca713924, type: 2}
  - m_RefCount: 1
    m_Data: {fileID: 11400000, guid: 307904855ae80f0429dd724788ffc9b0, type: 2}
  - m_RefCount: 1
    m_Data: {fileID: 11400000, guid: 00d4cf5ee4aa31144a4cca7f0f22f289, type: 2}
  - m_RefCount: 1
    m_Data: {fileID: 11400000, guid: 70be37b8ff351954faf86d02410cbf56, type: 2}
  - m_RefCount: 1
    m_Data: {fileID: 11400000, guid: 709ae81099c54944cb5243dfe6d514f2, type: 2}
  - m_RefCount: 1
    m_Data: {fileID: 11400000, guid: f2b726d62978ba54fa03f00c61d5418f, type: 2}
  - m_RefCount: 1
    m_Data: {fileID: 11400000, guid: c178eae7ee1fa3543abf595b3e4a8f20, type: 2}
  - m_RefCount: 1
    m_Data: {fileID: 11400000, guid: 1d133491c6ab4de4f93c89e5894b0a18, type: 2}
  - m_RefCount: 1
    m_Data: {fileID: 11400000, guid: 52ef872c75e2c8c498314b2cf46910ab, type: 2}
  - m_RefCount: 1
    m_Data: {fileID: 11400000, guid: e78dcb298b6b4014f82d53754647af10, type: 2}
  - m_RefCount: 1
    m_Data: {fileID: 11400000, guid: 32be24a67b4869e498579b3cd761f88c, type: 2}
  - m_RefCount: 1
    m_Data: {fileID: 11400000, guid: 198e2dcb2a2fd9d45b2899654dd4d9b4, type: 2}
  - m_RefCount: 1
    m_Data: {fileID: 11400000, guid: 2d0fcbe20a4571945b7787df1c3c9d59, type: 2}
  - m_RefCount: 1
    m_Data: {fileID: 11400000, guid: dcc0cfa56dc0fdd4bb18d2e953cf6e54, type: 2}
  - m_RefCount: 1
    m_Data: {fileID: 11400000, guid: a1755a06202eabb449ff852f320bd8e0, type: 2}
  - m_RefCount: 1
    m_Data: {fileID: 11400000, guid: 354f49cf553cd404a854dc9b7871aa5a, type: 2}
  - m_RefCount: 0
    m_Data: {fileID: 0}
  - m_RefCount: 1
    m_Data: {fileID: 11400000, guid: 2882eaf7e9cdb2743a3b00da71a73bb1, type: 2}
  - m_RefCount: 1
    m_Data: {fileID: 11400000, guid: c3dde32f331cd3b4b96b631a9a35733f, type: 2}
  - m_RefCount: 1
    m_Data: {fileID: 11400000, guid: 4ed916c4045462f449d6314e85b9a0ac, type: 2}
  - m_RefCount: 1
    m_Data: {fileID: 11400000, guid: 10748513ac5e0bd4f90581141d46206d, type: 2}
  - m_RefCount: 1
    m_Data: {fileID: 11400000, guid: c02e234c91779e44d94a7fe5a99fd2be, type: 2}
  - m_RefCount: 1
    m_Data: {fileID: 11400000, guid: 4178b6045a0bb804bb713454e93de1df, type: 2}
  - m_RefCount: 1
    m_Data: {fileID: 11400000, guid: e4c702f0f06719246bea167a0ed0ec7d, type: 2}
  - m_RefCount: 1
    m_Data: {fileID: 11400000, guid: 5cf39d315f4ab204eb1c565d330d3b5f, type: 2}
  - m_RefCount: 1
    m_Data: {fileID: 11400000, guid: 900ef202b1322d64893e62aa520c6ca5, type: 2}
  - m_RefCount: 1
    m_Data: {fileID: 11400000, guid: 8c6d6d9c871b8ca419199c5f89368397, type: 2}
  - m_RefCount: 1
    m_Data: {fileID: 11400000, guid: c35ab4bedf809d64e8ca43bcf8b1cd0c, type: 2}
  - m_RefCount: 1
    m_Data: {fileID: 11400000, guid: de61a5e9614567e47a3d96aefcdc11b1, type: 2}
  - m_RefCount: 1
    m_Data: {fileID: 11400000, guid: 215d29701dd069d49985c59a2cf2db3b, type: 2}
  - m_RefCount: 1
    m_Data: {fileID: 11400000, guid: 4fe8c1cfadbe41c4193be5f103a239a1, type: 2}
  - m_RefCount: 1
    m_Data: {fileID: 11400000, guid: 986ce32c14a869646bb2cb5a4825e6d2, type: 2}
  - m_RefCount: 1
    m_Data: {fileID: 11400000, guid: 417795f4f99f91242b06190124ea873f, type: 2}
  - m_RefCount: 1
    m_Data: {fileID: 11400000, guid: 578b29cd90e0bca4fa65720c0a489463, type: 2}
  - m_RefCount: 1
    m_Data: {fileID: 11400000, guid: 16c489202cd44b345860013a101aa2eb, type: 2}
  - m_RefCount: 1
    m_Data: {fileID: 11400000, guid: 420c69f82bcffce46a84a0fd3f4f8250, type: 2}
  - m_RefCount: 1
    m_Data: {fileID: 11400000, guid: 9fc14dd7f23f25d408e0823b00741420, type: 2}
  m_TileSpriteArray:
  - m_RefCount: 1
    m_Data: {fileID: 21300000, guid: d1d387389573c4548a2d28ea9122782d, type: 3}
  - m_RefCount: 1
    m_Data: {fileID: 21300002, guid: d1d387389573c4548a2d28ea9122782d, type: 3}
  - m_RefCount: 1
    m_Data: {fileID: 21300004, guid: d1d387389573c4548a2d28ea9122782d, type: 3}
  - m_RefCount: 1
    m_Data: {fileID: 21300006, guid: d1d387389573c4548a2d28ea9122782d, type: 3}
  - m_RefCount: 1
    m_Data: {fileID: 21300008, guid: d1d387389573c4548a2d28ea9122782d, type: 3}
  - m_RefCount: 1
    m_Data: {fileID: 21300010, guid: d1d387389573c4548a2d28ea9122782d, type: 3}
  - m_RefCount: 1
    m_Data: {fileID: 21300012, guid: d1d387389573c4548a2d28ea9122782d, type: 3}
  - m_RefCount: 1
    m_Data: {fileID: 21300014, guid: d1d387389573c4548a2d28ea9122782d, type: 3}
  - m_RefCount: 1
    m_Data: {fileID: 21300016, guid: d1d387389573c4548a2d28ea9122782d, type: 3}
  - m_RefCount: 1
    m_Data: {fileID: 21300018, guid: d1d387389573c4548a2d28ea9122782d, type: 3}
  - m_RefCount: 1
    m_Data: {fileID: 21300020, guid: d1d387389573c4548a2d28ea9122782d, type: 3}
  - m_RefCount: 1
    m_Data: {fileID: 21300022, guid: d1d387389573c4548a2d28ea9122782d, type: 3}
  - m_RefCount: 1
    m_Data: {fileID: 21300024, guid: d1d387389573c4548a2d28ea9122782d, type: 3}
  - m_RefCount: 1
    m_Data: {fileID: 21300026, guid: d1d387389573c4548a2d28ea9122782d, type: 3}
  - m_RefCount: 1
    m_Data: {fileID: 21300028, guid: d1d387389573c4548a2d28ea9122782d, type: 3}
  - m_RefCount: 1
    m_Data: {fileID: 21300030, guid: d1d387389573c4548a2d28ea9122782d, type: 3}
  - m_RefCount: 1
    m_Data: {fileID: 21300032, guid: d1d387389573c4548a2d28ea9122782d, type: 3}
  - m_RefCount: 1
    m_Data: {fileID: 21300034, guid: d1d387389573c4548a2d28ea9122782d, type: 3}
  - m_RefCount: 1
    m_Data: {fileID: 21300036, guid: d1d387389573c4548a2d28ea9122782d, type: 3}
  - m_RefCount: 1
    m_Data: {fileID: 21300038, guid: d1d387389573c4548a2d28ea9122782d, type: 3}
  - m_RefCount: 1
    m_Data: {fileID: 21300040, guid: d1d387389573c4548a2d28ea9122782d, type: 3}
  - m_RefCount: 1
    m_Data: {fileID: 21300042, guid: d1d387389573c4548a2d28ea9122782d, type: 3}
  - m_RefCount: 1
    m_Data: {fileID: 21300044, guid: d1d387389573c4548a2d28ea9122782d, type: 3}
  - m_RefCount: 1
    m_Data: {fileID: 21300046, guid: d1d387389573c4548a2d28ea9122782d, type: 3}
  - m_RefCount: 1
    m_Data: {fileID: 21300048, guid: d1d387389573c4548a2d28ea9122782d, type: 3}
  - m_RefCount: 1
    m_Data: {fileID: 21300050, guid: d1d387389573c4548a2d28ea9122782d, type: 3}
  - m_RefCount: 1
    m_Data: {fileID: 21300052, guid: d1d387389573c4548a2d28ea9122782d, type: 3}
  - m_RefCount: 1
    m_Data: {fileID: 21300054, guid: d1d387389573c4548a2d28ea9122782d, type: 3}
  - m_RefCount: 1
    m_Data: {fileID: 21300056, guid: d1d387389573c4548a2d28ea9122782d, type: 3}
  - m_RefCount: 1
    m_Data: {fileID: 21300058, guid: d1d387389573c4548a2d28ea9122782d, type: 3}
  - m_RefCount: 1
    m_Data: {fileID: 21300060, guid: d1d387389573c4548a2d28ea9122782d, type: 3}
  - m_RefCount: 1
    m_Data: {fileID: 21300062, guid: d1d387389573c4548a2d28ea9122782d, type: 3}
  - m_RefCount: 1
    m_Data: {fileID: 21300064, guid: d1d387389573c4548a2d28ea9122782d, type: 3}
  - m_RefCount: 1
    m_Data: {fileID: 21300066, guid: d1d387389573c4548a2d28ea9122782d, type: 3}
  - m_RefCount: 1
    m_Data: {fileID: 21300068, guid: d1d387389573c4548a2d28ea9122782d, type: 3}
  - m_RefCount: 1
    m_Data: {fileID: 21300070, guid: d1d387389573c4548a2d28ea9122782d, type: 3}
  - m_RefCount: 1
    m_Data: {fileID: 21300072, guid: d1d387389573c4548a2d28ea9122782d, type: 3}
  - m_RefCount: 1
    m_Data: {fileID: 21300074, guid: d1d387389573c4548a2d28ea9122782d, type: 3}
  - m_RefCount: 1
    m_Data: {fileID: 21300076, guid: d1d387389573c4548a2d28ea9122782d, type: 3}
  - m_RefCount: 1
    m_Data: {fileID: 21300078, guid: d1d387389573c4548a2d28ea9122782d, type: 3}
  - m_RefCount: 1
    m_Data: {fileID: 21300080, guid: d1d387389573c4548a2d28ea9122782d, type: 3}
  - m_RefCount: 1
    m_Data: {fileID: 21300082, guid: d1d387389573c4548a2d28ea9122782d, type: 3}
  - m_RefCount: 1
    m_Data: {fileID: 21300084, guid: d1d387389573c4548a2d28ea9122782d, type: 3}
  - m_RefCount: 1
    m_Data: {fileID: 21300086, guid: d1d387389573c4548a2d28ea9122782d, type: 3}
  - m_RefCount: 1
    m_Data: {fileID: 21300088, guid: d1d387389573c4548a2d28ea9122782d, type: 3}
  - m_RefCount: 1
    m_Data: {fileID: 21300090, guid: d1d387389573c4548a2d28ea9122782d, type: 3}
  - m_RefCount: 1
    m_Data: {fileID: 21300092, guid: d1d387389573c4548a2d28ea9122782d, type: 3}
  - m_RefCount: 1
    m_Data: {fileID: 21300094, guid: d1d387389573c4548a2d28ea9122782d, type: 3}
  - m_RefCount: 1
    m_Data: {fileID: 21300096, guid: d1d387389573c4548a2d28ea9122782d, type: 3}
  - m_RefCount: 1
    m_Data: {fileID: 21300098, guid: d1d387389573c4548a2d28ea9122782d, type: 3}
  - m_RefCount: 1
    m_Data: {fileID: 21300100, guid: d1d387389573c4548a2d28ea9122782d, type: 3}
  - m_RefCount: 1
    m_Data: {fileID: 21300102, guid: d1d387389573c4548a2d28ea9122782d, type: 3}
  - m_RefCount: 1
    m_Data: {fileID: 21300104, guid: d1d387389573c4548a2d28ea9122782d, type: 3}
  - m_RefCount: 1
    m_Data: {fileID: 21300106, guid: d1d387389573c4548a2d28ea9122782d, type: 3}
  - m_RefCount: 1
    m_Data: {fileID: 21300108, guid: d1d387389573c4548a2d28ea9122782d, type: 3}
  - m_RefCount: 1
    m_Data: {fileID: 21300110, guid: d1d387389573c4548a2d28ea9122782d, type: 3}
  - m_RefCount: 1
    m_Data: {fileID: 21300112, guid: d1d387389573c4548a2d28ea9122782d, type: 3}
  - m_RefCount: 1
    m_Data: {fileID: 21300114, guid: d1d387389573c4548a2d28ea9122782d, type: 3}
  - m_RefCount: 1
    m_Data: {fileID: 21300116, guid: d1d387389573c4548a2d28ea9122782d, type: 3}
  - m_RefCount: 1
    m_Data: {fileID: 21300118, guid: d1d387389573c4548a2d28ea9122782d, type: 3}
  - m_RefCount: 1
    m_Data: {fileID: 21300120, guid: d1d387389573c4548a2d28ea9122782d, type: 3}
  - m_RefCount: 1
    m_Data: {fileID: 21300122, guid: d1d387389573c4548a2d28ea9122782d, type: 3}
  - m_RefCount: 1
    m_Data: {fileID: 21300124, guid: d1d387389573c4548a2d28ea9122782d, type: 3}
  - m_RefCount: 1
    m_Data: {fileID: 21300126, guid: d1d387389573c4548a2d28ea9122782d, type: 3}
  - m_RefCount: 1
    m_Data: {fileID: 21300128, guid: d1d387389573c4548a2d28ea9122782d, type: 3}
  - m_RefCount: 1
    m_Data: {fileID: 21300130, guid: d1d387389573c4548a2d28ea9122782d, type: 3}
  - m_RefCount: 1
    m_Data: {fileID: 21300132, guid: d1d387389573c4548a2d28ea9122782d, type: 3}
  - m_RefCount: 1
    m_Data: {fileID: 21300134, guid: d1d387389573c4548a2d28ea9122782d, type: 3}
  - m_RefCount: 1
    m_Data: {fileID: 21300136, guid: d1d387389573c4548a2d28ea9122782d, type: 3}
  - m_RefCount: 1
    m_Data: {fileID: 21300138, guid: d1d387389573c4548a2d28ea9122782d, type: 3}
  - m_RefCount: 1
    m_Data: {fileID: 21300140, guid: d1d387389573c4548a2d28ea9122782d, type: 3}
  - m_RefCount: 1
    m_Data: {fileID: 21300142, guid: d1d387389573c4548a2d28ea9122782d, type: 3}
  - m_RefCount: 1
    m_Data: {fileID: 21300144, guid: d1d387389573c4548a2d28ea9122782d, type: 3}
  - m_RefCount: 1
    m_Data: {fileID: 21300146, guid: d1d387389573c4548a2d28ea9122782d, type: 3}
  - m_RefCount: 1
    m_Data: {fileID: 21300148, guid: d1d387389573c4548a2d28ea9122782d, type: 3}
  - m_RefCount: 1
    m_Data: {fileID: 21300150, guid: d1d387389573c4548a2d28ea9122782d, type: 3}
  - m_RefCount: 1
    m_Data: {fileID: 21300152, guid: d1d387389573c4548a2d28ea9122782d, type: 3}
  - m_RefCount: 1
    m_Data: {fileID: 21300154, guid: d1d387389573c4548a2d28ea9122782d, type: 3}
  - m_RefCount: 1
    m_Data: {fileID: 21300156, guid: d1d387389573c4548a2d28ea9122782d, type: 3}
  - m_RefCount: 1
    m_Data: {fileID: 21300158, guid: d1d387389573c4548a2d28ea9122782d, type: 3}
  - m_RefCount: 1
    m_Data: {fileID: 21300160, guid: d1d387389573c4548a2d28ea9122782d, type: 3}
  - m_RefCount: 1
    m_Data: {fileID: 21300162, guid: d1d387389573c4548a2d28ea9122782d, type: 3}
  - m_RefCount: 1
    m_Data: {fileID: 21300164, guid: d1d387389573c4548a2d28ea9122782d, type: 3}
  - m_RefCount: 1
    m_Data: {fileID: 21300166, guid: d1d387389573c4548a2d28ea9122782d, type: 3}
  - m_RefCount: 1
    m_Data: {fileID: 21300168, guid: d1d387389573c4548a2d28ea9122782d, type: 3}
  - m_RefCount: 1
    m_Data: {fileID: 21300170, guid: d1d387389573c4548a2d28ea9122782d, type: 3}
  - m_RefCount: 1
    m_Data: {fileID: 21300172, guid: d1d387389573c4548a2d28ea9122782d, type: 3}
  - m_RefCount: 1
    m_Data: {fileID: 21300174, guid: d1d387389573c4548a2d28ea9122782d, type: 3}
  - m_RefCount: 1
    m_Data: {fileID: 21300176, guid: d1d387389573c4548a2d28ea9122782d, type: 3}
  - m_RefCount: 1
    m_Data: {fileID: 21300178, guid: d1d387389573c4548a2d28ea9122782d, type: 3}
  - m_RefCount: 1
    m_Data: {fileID: 21300180, guid: d1d387389573c4548a2d28ea9122782d, type: 3}
  - m_RefCount: 1
    m_Data: {fileID: 21300182, guid: d1d387389573c4548a2d28ea9122782d, type: 3}
  - m_RefCount: 1
    m_Data: {fileID: 21300184, guid: d1d387389573c4548a2d28ea9122782d, type: 3}
  - m_RefCount: 1
    m_Data: {fileID: 21300186, guid: d1d387389573c4548a2d28ea9122782d, type: 3}
  - m_RefCount: 1
    m_Data: {fileID: 21300188, guid: d1d387389573c4548a2d28ea9122782d, type: 3}
  - m_RefCount: 1
    m_Data: {fileID: 21300190, guid: d1d387389573c4548a2d28ea9122782d, type: 3}
  - m_RefCount: 1
    m_Data: {fileID: 21300192, guid: d1d387389573c4548a2d28ea9122782d, type: 3}
  - m_RefCount: 1
    m_Data: {fileID: 21300194, guid: d1d387389573c4548a2d28ea9122782d, type: 3}
  - m_RefCount: 1
    m_Data: {fileID: 21300196, guid: d1d387389573c4548a2d28ea9122782d, type: 3}
  - m_RefCount: 1
    m_Data: {fileID: 21300198, guid: d1d387389573c4548a2d28ea9122782d, type: 3}
  - m_RefCount: 1
    m_Data: {fileID: 21300200, guid: d1d387389573c4548a2d28ea9122782d, type: 3}
  - m_RefCount: 1
    m_Data: {fileID: 21300202, guid: d1d387389573c4548a2d28ea9122782d, type: 3}
  - m_RefCount: 1
    m_Data: {fileID: 21300204, guid: d1d387389573c4548a2d28ea9122782d, type: 3}
  - m_RefCount: 1
    m_Data: {fileID: 21300206, guid: d1d387389573c4548a2d28ea9122782d, type: 3}
  - m_RefCount: 1
    m_Data: {fileID: 21300208, guid: d1d387389573c4548a2d28ea9122782d, type: 3}
  - m_RefCount: 1
    m_Data: {fileID: 21300212, guid: d1d387389573c4548a2d28ea9122782d, type: 3}
  - m_RefCount: 1
    m_Data: {fileID: 21300210, guid: d1d387389573c4548a2d28ea9122782d, type: 3}
  - m_RefCount: 1
    m_Data: {fileID: 21300214, guid: d1d387389573c4548a2d28ea9122782d, type: 3}
  - m_RefCount: 1
    m_Data: {fileID: 21300216, guid: d1d387389573c4548a2d28ea9122782d, type: 3}
  - m_RefCount: 1
    m_Data: {fileID: 21300218, guid: d1d387389573c4548a2d28ea9122782d, type: 3}
  - m_RefCount: 1
    m_Data: {fileID: 21300220, guid: d1d387389573c4548a2d28ea9122782d, type: 3}
  - m_RefCount: 1
    m_Data: {fileID: 21300222, guid: d1d387389573c4548a2d28ea9122782d, type: 3}
  - m_RefCount: 1
    m_Data: {fileID: 21300224, guid: d1d387389573c4548a2d28ea9122782d, type: 3}
  - m_RefCount: 0
    m_Data: {fileID: 0}
  - m_RefCount: 1
    m_Data: {fileID: 21300228, guid: d1d387389573c4548a2d28ea9122782d, type: 3}
  - m_RefCount: 1
    m_Data: {fileID: 21300230, guid: d1d387389573c4548a2d28ea9122782d, type: 3}
  - m_RefCount: 1
    m_Data: {fileID: 21300232, guid: d1d387389573c4548a2d28ea9122782d, type: 3}
  - m_RefCount: 1
    m_Data: {fileID: 21300234, guid: d1d387389573c4548a2d28ea9122782d, type: 3}
  - m_RefCount: 1
    m_Data: {fileID: 21300236, guid: d1d387389573c4548a2d28ea9122782d, type: 3}
  - m_RefCount: 1
    m_Data: {fileID: 21300238, guid: d1d387389573c4548a2d28ea9122782d, type: 3}
  - m_RefCount: 1
    m_Data: {fileID: 21300240, guid: d1d387389573c4548a2d28ea9122782d, type: 3}
  - m_RefCount: 1
    m_Data: {fileID: 21300242, guid: d1d387389573c4548a2d28ea9122782d, type: 3}
  - m_RefCount: 1
    m_Data: {fileID: 21300244, guid: d1d387389573c4548a2d28ea9122782d, type: 3}
  - m_RefCount: 1
    m_Data: {fileID: 21300246, guid: d1d387389573c4548a2d28ea9122782d, type: 3}
  - m_RefCount: 1
    m_Data: {fileID: 21300248, guid: d1d387389573c4548a2d28ea9122782d, type: 3}
  - m_RefCount: 1
    m_Data: {fileID: 21300250, guid: d1d387389573c4548a2d28ea9122782d, type: 3}
  - m_RefCount: 1
    m_Data: {fileID: 21300252, guid: d1d387389573c4548a2d28ea9122782d, type: 3}
  - m_RefCount: 1
    m_Data: {fileID: 21300254, guid: d1d387389573c4548a2d28ea9122782d, type: 3}
  - m_RefCount: 1
    m_Data: {fileID: 21300256, guid: d1d387389573c4548a2d28ea9122782d, type: 3}
  - m_RefCount: 1
    m_Data: {fileID: 21300258, guid: d1d387389573c4548a2d28ea9122782d, type: 3}
  - m_RefCount: 1
    m_Data: {fileID: 21300260, guid: d1d387389573c4548a2d28ea9122782d, type: 3}
  - m_RefCount: 1
    m_Data: {fileID: 21300262, guid: d1d387389573c4548a2d28ea9122782d, type: 3}
  - m_RefCount: 1
    m_Data: {fileID: 21300226, guid: d1d387389573c4548a2d28ea9122782d, type: 3}
  - m_RefCount: 1
    m_Data: {fileID: 21300266, guid: d1d387389573c4548a2d28ea9122782d, type: 3}
  m_TileMatrixArray:
  - m_RefCount: 133
    m_Data:
      e00: 1
      e01: 0
      e02: 0
      e03: 0
      e10: 0
      e11: 1
      e12: 0
      e13: 0
      e20: 0
      e21: 0
      e22: 1
      e23: 0
      e30: 0
      e31: 0
      e32: 0
      e33: 1
  m_TileColorArray:
  - m_RefCount: 133
    m_Data: {r: 1, g: 1, b: 1, a: 1}
  m_AnimationFrameRate: 1
  m_Color: {r: 1, g: 1, b: 1, a: 1}
  m_Origin: {x: -5, y: -7, z: 0}
  m_Size: {x: 27, y: 12, z: 1}
  m_TileAnchor: {x: 0.5, y: 0.5, z: 0}
  m_TileOrientation: 0
  m_TileOrientationMatrix:
    e00: 1
    e01: 0
    e02: 0
    e03: 0
    e10: 0
    e11: 1
    e12: 0
    e13: 0
    e20: 0
    e21: 0
    e22: 1
    e23: 0
    e30: 0
    e31: 0
    e32: 0
    e33: 1
--- !u!483693784 &8610652479032485882
TilemapRenderer:
  m_ObjectHideFlags: 0
  m_CorrespondingSourceObject: {fileID: 0}
  m_PrefabInstance: {fileID: 0}
  m_PrefabAsset: {fileID: 0}
  m_GameObject: {fileID: 989698534424410484}
  m_Enabled: 0
  m_CastShadows: 0
  m_ReceiveShadows: 0
  m_DynamicOccludee: 0
  m_MotionVectors: 1
  m_LightProbeUsage: 0
  m_ReflectionProbeUsage: 0
  m_RenderingLayerMask: 1
  m_RendererPriority: 0
  m_Materials:
  - {fileID: 10754, guid: 0000000000000000f000000000000000, type: 0}
  m_StaticBatchInfo:
    firstSubMesh: 0
    subMeshCount: 0
  m_StaticBatchRoot: {fileID: 0}
  m_ProbeAnchor: {fileID: 0}
  m_LightProbeVolumeOverride: {fileID: 0}
  m_ScaleInLightmap: 1
  m_PreserveUVs: 0
  m_IgnoreNormalsForChartDetection: 0
  m_ImportantGI: 0
  m_StitchLightmapSeams: 0
  m_SelectedEditorRenderState: 0
  m_MinimumChartSize: 4
  m_AutoUVMaxDistance: 0.5
  m_AutoUVMaxAngle: 89
  m_LightmapParameters: {fileID: 0}
  m_SortingLayerID: 0
  m_SortingLayer: 0
  m_SortingOrder: 0
  m_ChunkSize: {x: 32, y: 32, z: 32}
  m_ChunkCullingBounds: {x: 0, y: 0, z: 0}
  m_MaxChunkCount: 16
  m_MaxFrameAge: 16
  m_SortOrder: 0
  m_Mode: 0
  m_DetectChunkCullingBounds: 0
  m_MaskInteraction: 0
--- !u!1 &8224883646834434672
GameObject:
  m_ObjectHideFlags: 0
  m_CorrespondingSourceObject: {fileID: 0}
  m_PrefabInstance: {fileID: 0}
  m_PrefabAsset: {fileID: 0}
  serializedVersion: 6
  m_Component:
  - component: {fileID: 5406093540640931929}
  - component: {fileID: 8060549627409617732}
  m_Layer: 31
  m_Name: Nivel 1 Palette
  m_TagString: Untagged
  m_Icon: {fileID: 0}
  m_NavMeshLayer: 0
  m_StaticEditorFlags: 0
  m_IsActive: 1
--- !u!4 &5406093540640931929
Transform:
  m_ObjectHideFlags: 0
  m_CorrespondingSourceObject: {fileID: 0}
  m_PrefabInstance: {fileID: 0}
  m_PrefabAsset: {fileID: 0}
  m_GameObject: {fileID: 8224883646834434672}
  m_LocalRotation: {x: 0, y: 0, z: 0, w: 1}
  m_LocalPosition: {x: 0, y: 0, z: 0}
  m_LocalScale: {x: 1, y: 1, z: 1}
  m_Children:
  - {fileID: 4817618503104157676}
  m_Father: {fileID: 0}
  m_RootOrder: 0
  m_LocalEulerAnglesHint: {x: 0, y: 0, z: 0}
--- !u!156049354 &8060549627409617732
Grid:
  m_ObjectHideFlags: 0
  m_CorrespondingSourceObject: {fileID: 0}
  m_PrefabInstance: {fileID: 0}
  m_PrefabAsset: {fileID: 0}
  m_GameObject: {fileID: 8224883646834434672}
  m_Enabled: 1
  m_CellSize: {x: 1, y: 1, z: 0}
  m_CellGap: {x: 0, y: 0, z: 0}
  m_CellLayout: 0
  m_CellSwizzle: 0
--- !u!114 &114415063689214716
MonoBehaviour:
  m_ObjectHideFlags: 0
  m_CorrespondingSourceObject: {fileID: 0}
  m_PrefabInstance: {fileID: 0}
  m_PrefabAsset: {fileID: 0}
  m_GameObject: {fileID: 0}
  m_Enabled: 1
  m_EditorHideFlags: 0
  m_Script: {fileID: 12395, guid: 0000000000000000e000000000000000, type: 0}
  m_Name: Palette Settings
  m_EditorClassIdentifier: 
  cellSizing: 0
